<svg width="100" height="100" viewBox="0 0 100 100" fill="none" xmlns="http://www.w3.org/2000/svg">
<circle cx="50" cy="50" r="49.25" stroke="black" stroke-width="1.5"/>
<path d="M27.8884 38.2666C25.4957 38.2666 23.5494 40.2129 23.5494 42.6051V66.5774C23.5494 68.9697 25.4957 70.916 27.8884 70.916H71.2364C73.6291 70.916 75.5756 68.9697 75.5756 66.5774V42.6051C75.5756 40.2129 73.6291 38.2666 71.2364 38.2666H27.8884ZM71.2364 72.4661H27.8884C24.6414 72.4661 22 69.8248 22 66.5774V42.6051C22 39.3577 24.6414 36.7165 27.8884 36.7165H71.2364C74.4834 36.7165 77.1248 39.3577 77.1248 42.6051V66.5774C77.1248 69.8248 74.4834 72.4661 71.2364 72.4661Z" fill="black"/>
<path d="M39.8921 36.7165H59.2342V33.2297C59.2342 30.98 57.4038 29.15 55.1538 29.15H43.9711C41.7214 29.15 39.8921 30.98 39.8921 33.2297V36.7165ZM60.0089 38.2644H39.1174C38.6892 38.2644 38.3428 37.918 38.3428 37.4915V33.2297C38.3428 30.1249 40.867 27.5998 43.9711 27.5998H55.1538C58.2581 27.5998 60.7835 30.1249 60.7835 33.2297V37.4915C60.7835 37.918 60.4359 38.2644 60.0089 38.2644Z" fill="black"/>
<path d="M44.9868 36.669H54.1377V34.5309C54.1377 34.077 53.7691 33.7086 53.3154 33.7086H45.81C45.3563 33.7086 44.9868 34.077 44.9868 34.5309V36.669ZM54.9123 38.2172H44.212C43.7849 38.2172 43.4375 37.8707 43.4375 37.4431V34.5309C43.4375 33.2217 44.5019 32.1582 45.81 32.1582H53.3154C54.6235 32.1582 55.687 33.2217 55.687 34.5309V37.4431C55.687 37.8707 55.3406 38.2172 54.9123 38.2172Z" fill="black"/>
<path d="M51.2725 57.6363C51.2725 58.3389 50.704 58.9091 49.9998 58.9091C49.2964 58.9091 48.7271 58.3389 48.7271 57.6363C48.7271 56.9338 49.2964 56.3636 49.9998 56.3636C50.704 56.3636 51.2725 56.9338 51.2725 57.6363Z" fill="black"/>
<path d="M56.3635 63.9999H43.6362V53.8181H56.3635V63.9999Z" stroke="#3C65F4" stroke-width="1.5" stroke-miterlimit="10" stroke-linecap="round" stroke-linejoin="round"/>
<path d="M43.6362 53.818V49.9998C43.6362 46.4858 46.4859 43.6362 49.9999 43.6362C53.5151 43.6362 56.3635 46.4858 56.3635 49.9998V53.818" stroke="#3C65F4" stroke-width="1.5" stroke-miterlimit="10" stroke-linecap="round" stroke-linejoin="round"/>
<path d="M50 57.6362V60.1816" stroke="black" stroke-width="1.2" stroke-miterlimit="10" stroke-linecap="round" stroke-linejoin="round"/>
</svg>
